{
  "dev": {
    "awscloudformation": {
      "AuthRoleName": "amplify-saltandoak-dev-153155-authRole",
      "UnauthRoleArn": "arn:aws:iam::226810914716:role/amplify-saltandoak-dev-153155-unauthRole",
      "AuthRoleArn": "arn:aws:iam::226810914716:role/amplify-saltandoak-dev-153155-authRole",
      "Region": "us-east-1",
      "DeploymentBucketName": "amplify-saltandoak-dev-153155-deployment",
      "UnauthRoleName": "amplify-saltandoak-dev-153155-unauthRole",
      "StackName": "amplify-saltandoak-dev-153155",
      "StackId": "arn:aws:cloudformation:us-east-1:226810914716:stack/amplify-saltandoak-dev-153155/68c3d9a0-2d51-11ed-8adc-0a9331d840ed",
      "AmplifyAppId": "dmhmivc4sejid"
    },
    "categories": {
      "auth": {
        "saltandoakeb3f443d": {}
      },
      "function": {
        "saltandoak55e92eaa": {
          "secretsPathAmplifyAppId": "dmhmivc4sejid",
          "deploymentBucketName": "amplify-saltandoak-dev-153155-deployment",
          "s3Key": "amplify-builds/saltandoak55e92eaa-344a3477646874412f69-build.zip"
        }
      }
    }
  }
}